<svg xmlns="http://www.w3.org/2000/svg" viewBox="2932.73 19.96 37.139 46.93">
  <defs>
    <style>
      .cls-1 {
        fill: #3a3b3e;
      }

      .cls-2 {
        fill: #deca7f;
      }
    </style>
  </defs>
  <g id="Group_270" data-name="Group 270" transform="translate(2932.711 19.96)">
    <path id="Path_346" data-name="Path 346" class="cls-1" d="M40.595,33.9l-3.3,5.025a.815.815,0,0,0,.648,1.243h5.944a.872.872,0,0,0,.486-.162l9.51-6.754a.808.808,0,0,0-.594-1.459L41.135,33.469A1.471,1.471,0,0,0,40.595,33.9Z" transform="translate(-17.081 -14.61)"/>
    <path id="Path_347" data-name="Path 347" class="cls-1" d="M31.4,51.89a.808.808,0,0,0-1.351,0L26.59,57.131a.93.93,0,0,0-.108.648l3.512,12.266a.788.788,0,0,0,1.513,0L34.966,57.78a.93.93,0,0,0-.108-.648Z" transform="translate(-12.154 -23.683)"/>
    <path id="Path_348" data-name="Path 348" class="cls-1" d="M44.251,49.462a.661.661,0,0,0-.486-.162H37.82a.782.782,0,0,0-.648,1.243l3.3,5.025a.781.781,0,0,0,.54.378l12.212,1.675a.821.821,0,0,0,.594-1.459Z" transform="translate(-17.008 -22.661)"/>
    <path id="Path_349" data-name="Path 349" class="cls-1" d="M16.273,49.3H10.329a.872.872,0,0,0-.486.162L.333,56.217a.785.785,0,0,0,.594,1.4l12.158-1.675a.781.781,0,0,0,.54-.378l3.3-5.025A.782.782,0,0,0,16.273,49.3Z" transform="translate(0 -22.661)"/>
    <path id="Path_350" data-name="Path 350" class="cls-2" d="M29.111,23.938a.909.909,0,0,0,1.513,0l4.431-6.754a.919.919,0,0,0,.108-.756L30.733.648A.9.9,0,0,0,29,.648L24.573,16.427a.919.919,0,0,0,.108.756Zm-2.053-8.159,2.432-8.7a.375.375,0,0,1,.7,0l2.432,8.7a.92.92,0,0,1-.108.756l-1.891,2.918a.909.909,0,0,1-1.513,0l-1.945-2.918A1.3,1.3,0,0,1,27.058,15.778Z" transform="translate(-11.271 0)"/>
    <path id="Path_351" data-name="Path 351" class="cls-1" d="M9.9,40.107a.661.661,0,0,0,.486.162h5.944a.782.782,0,0,0,.648-1.243L13.679,34a.781.781,0,0,0-.54-.378L.927,31.894a.821.821,0,0,0-.594,1.459Z" transform="translate(0 -14.656)"/>
  </g>
</svg>
