<svg xmlns="http://www.w3.org/2000/svg" viewBox="2332 3022.074 346.703 337.148">
  <defs>
    <style>
      .cls-1 {
        fill: #deca7f;
      }
    </style>
  </defs>
  <g id="Group_7" data-name="Group 7" transform="translate(2332 3022.074)">
    <path id="Path_66" data-name="Path 66" class="cls-1" d="M759.528,615.941c1.03,2.3,2.18,4.543,3.028,6.9.636,1.787,2.12.606,3.18,1.3-.061,1.181-.121,2.483-.242,3.785a2.825,2.825,0,0,0,1.7,3.089,3.324,3.324,0,0,1,1.968,3.149,22.9,22.9,0,0,0,4,11.841,14.22,14.22,0,0,1,1.7,3.392c.636,1.726-.242,2.877-2,2.816-1.454-.03-2.847-.061-4.088,1-.394.333-1.363.151-2-.03-2.877-.818-3.6-.575-5.088,2.029a7.709,7.709,0,0,0-.485,1.151c-1.756,4.633-1.484,5.451,2.392,8.691a3.8,3.8,0,0,1,.969,2.332c.333,2.3.515,2.574,2.816,2.483.969-.03,1.484.242,1.666,1.181.333,1.605,1.393,2.211,2.968,2.392,2.089.242,4.149.727,6.208,1.06,1.12.182,1.726-.151,1.878-1.484.333-2.726.424-2.6,3.119-2.786a18.107,18.107,0,0,0,4.724-1.06c6.814-2.392,13.628-4.876,20.411-7.329l.909-.3c.606.787,1.181,1.544,1.756,2.3-.03.151-.03.3-.121.363a24.2,24.2,0,0,0-7.51,10.66c-.909,2.423-2.907,3.664-5.179,4.452-5.693,1.968-11.417,3.846-17.11,5.784-1.03.333-2.029.757-3.059,1.06-3.18.969-5.421,2.726-5.905,6.269a4.9,4.9,0,0,1-2.423,3.573,11.944,11.944,0,0,0-2.907,3.634,23.492,23.492,0,0,0-2.3,4.3,45.316,45.316,0,0,1-11.538,16.686,6.3,6.3,0,0,0-.606.666c-.061.061-.03.182-.091.606,4.573-4.149,9.055-7.995,11.477-13.537,3.271-7.48,9.509-11.811,16.262-15.6a5.5,5.5,0,0,1,1.181-.424c2.938-.848,5.178-.06,5.936,2.15.7,2-.909,5.088-3.271,6-1.242.485-2.574.636-3.846,1.03-3.089.969-6.208,1.938-9.237,3.028a2.583,2.583,0,0,0-1.242,1.726,12.292,12.292,0,0,0-.061,2.786c-.212.182-.273.3-.363.3-3.573-.091-4.482,2.392-5.027,5.209-.515,2.665-1.06,5.33-1.454,7.995-.485,3.362-3.392,7.056-7.3,7.51-2.392.3-4.755.848-7.117,1.272-1.454.273-2.6-.03-3.18-1.575-.636-1.666-1.878-1.847-3.392-1.211-1.06.424-2.12.848-3.21,1.181a6.1,6.1,0,0,1-5.118-.818,27.659,27.659,0,0,0-7.177-2.816c-4.3-1.03-6.874-3.271-7.42-7.874-1.06-9.055-2.332-18.079-3.483-27.1a2.317,2.317,0,0,1,.121-1.211,25.621,25.621,0,0,1,1.514-2.847c1.06-1.7.606-3.331,0-5.027-1.03-2.847-1.847-5.724-2.938-8.54a28.639,28.639,0,0,0-2.332-4.482c-.666-1.09-.3-1.666.515-2.453,2.059-1.938,4.119-3.907,6-6,5.512-6.208,2.544-16.5-2.362-19.927-.939-.666-1.847-1.363-2.756-2.059a3.158,3.158,0,0,1-1.181-4.119c.363-.818.606-1.7.939-2.544a10.044,10.044,0,0,0-.212-9.055,22.231,22.231,0,0,1-1.211-4.482c-.575-2.211-1-4.452-1.7-6.6-.818-2.453.394-4.482,3.059-4.512a31.278,31.278,0,0,1,5.027.424,6.59,6.59,0,0,0,5.148-1.09,2.73,2.73,0,0,1,3.331-.151c1.666,1,3.392,1.847,5.027,2.877.666.394,1.514.909,1.7,1.544.575,2.029,2.12,2.332,3.846,2.635,1.666.273,3.786.182,4.815,1.181.969.939.636,3.119,1.09,4.664a61.338,61.338,0,0,0,2.665,7.268c.333.757,1.514,1.151,2.362,1.605,1.363.727,2.847,1.242,4.179,2.059a2.131,2.131,0,0,0,3.24-.575,12.408,12.408,0,0,0,3.15-9.509,22.745,22.745,0,0,1,.333-4.27A4.855,4.855,0,0,1,759.528,615.941Z" transform="translate(-494.552 -422.464)"/>
    <path id="Path_67" data-name="Path 67" class="cls-1" d="M138.983,331.282c.454-3,1.726-3.6,5.966-3.271.909,2.574.909,2.514,3.695,2.12,2.453-.333,4.906-.545,7.389-.636,2.968-.121,3.271.151,3.967,3.271a18.488,18.488,0,0,0,2.847-.666c1.544-.636,2.332-.182,2.514,1.393.151,1.423.182,2.877.3,4.331.061.818.242,1.605.454,2.968,1.908-1.484,3.422-2.665,4.967-3.876.606,1.332.606,1.332-.363,5.875a5.987,5.987,0,0,0,2.029-.545,3.683,3.683,0,0,1,4.845.091c1.7,1.332,2.938,3.028,2.362,5.3a65.75,65.75,0,0,1-2.241,7.056,5.26,5.26,0,0,0,.727,5.512c5.088,6.753,9.963,13.628,14.9,20.5a4.009,4.009,0,0,0,3.059,1.938,7.912,7.912,0,0,1,6.723,4.664,7.506,7.506,0,0,0,2.907,2.756c5.057,2.816,10.145,5.572,15.293,8.207a2.625,2.625,0,0,1,1.605,2.968c-.7,7.026-1.332,14.052-2,21.077-.333,3.483-.666,6.935-1.06,10.811-2.726-.454-5.33-.878-7.9-1.332-23.137-4.058-45.426-10.993-67.291-19.442-1.363-.515-1.908-1.181-1.817-2.6.121-1.666.03-3.362.03-4.936-1.817-.757-3.422-1.332-4.967-2.09-2.271-1.12-2.574-1.817-1.423-4.058a2.7,2.7,0,0,0-.121-2.786c-1.151-2.362-2.574-4.755-3.028-7.3a15.056,15.056,0,0,1,.636-6.935c1.605-5.239.242-10.115-1.272-15.021a4.339,4.339,0,0,1,1.544-5.027c1.3-1.03,1.908-3.725.787-5.118-1.211-1.544-.969-3-.394-4.573.091-.212.182-.454.273-.666,1.3-3.3,1.211-3.483-1.605-5.754-2.635-2.12-2.665-1.484-1.151-4.815,1.3-2.907,2.847-5.724,4.3-8.57C136.924,331.04,137.56,330.162,138.983,331.282Zm32.767,43.609c.818.363,1.544.636,2.241.969,2,.878,3.15.636,4.633-1,1.12-1.242,1-1.847-.575-2.483-1.847-.787-3.725-1.544-5.754-2.362.666-.757,1.181-1.272,1.605-1.817.969-1.3.727-2.09-.848-2.12-4.391-.091-8.782-.03-13.446-.03,1.121,3.331,5.269,1.726,6.753,4.209-1.666,1.423-3.3,2.726-4.845,4.149-.666.636-1.544,1.393-.606,2.453.818.939,1.726,1.666,3.119.939.969-.515,2-.939,3.331-1.544-.727,1.454-1.242,2.453-1.847,3.664C169.358,379.131,169.449,379.07,171.75,374.891Zm24.015,32.04a4.844,4.844,0,0,0-5,.666c-3.543,2.635-5.966,2.392-9.055-.787-.787-.818-1.544-1.666-2.332-2.514-1-1.09-2.029-2.18-3.028-3.24a2.807,2.807,0,0,0,.091,1.817c.606,1.756,1.272,3.513,1.787,5.3.242.787.424,1.7-.848,1.968-2.635.575-5.057,2.362-7.965,1.635-.182-.061-.424.151-.636.242,1.454,3.543,6.784,6.087,10.478,4.724,5.088-1.878,10.115-3.876,14.415-7.329A21.247,21.247,0,0,0,195.765,406.931Z" transform="translate(-91.445 -228.626)"/>
    <path id="Path_68" data-name="Path 68" class="cls-1" d="M395.245,398.262A34.383,34.383,0,0,0,398,402.774a4.31,4.31,0,0,1,.818,4.543,23.041,23.041,0,0,1-1.847,3.907c-1.635,2.847-1.7,2.847-4.906,1.878.03.575.091,1.12.121,1.726-1.878.273-3.573.666-5.3-.454-.787-.485-2.059-.242-3.361-.091,2.7,2.7.878,4.664-.485,6.662-.908,1.363-2.12,2.574-.757,4.331a.711.711,0,0,1,.03.7c-1.484,2.6-2.907,5.239-4.512,7.783-.3.454-1.3.545-2,.666a5.4,5.4,0,0,0-3.907,2.18c-.545.818-2.332.757-3.543,1.121.333.484,1.06,1.03,1.181,1.726.515,2.786.121,3.967-2.635,4.149-1.121.061-1.878.3-2.241,1.605a7.4,7.4,0,0,1-1.484,2.241,45.78,45.78,0,0,0-7.662,14.264c-.848,2.877-.787,2.938-3.846,2.574-6.935-.818-13.9-1.726-20.835-2.514-1.363-.151-1.635-.727-1.544-2,.878-9.872,1.635-19.715,2.574-29.587.212-2.271-.242-3.6-2.423-4.664-4.482-2.18-8.813-4.755-13.295-6.965a9.916,9.916,0,0,1-4.724-4.24,7.036,7.036,0,0,0-6.178-4.058,4.38,4.38,0,0,1-3.483-2.18c-4.936-6.935-9.933-13.809-14.99-20.684a2.545,2.545,0,0,1-.424-2.786c1.12-2.786,2.12-5.633,3.3-8.843,1.7,1.605,3.089,2.968,4.543,4.3,1.484,1.332,2.7,2.968,5.148,2.847,1.544-.091,4.633,4.361,4.24,5.815-.151.575-1.06.939-1.666,1.363-.848.575-1.756,1.09-2.635,1.635.878.818,1.635,1.938,2.7,2.362a19.809,19.809,0,0,0,9.933,1.211,2.8,2.8,0,0,1,2.241.909c1.635,2.18,3.059,4.543,4.573,6.844a25.172,25.172,0,0,0-.03-3.695,1.665,1.665,0,0,1,1.03-2c1.575-.818,3.059-1.787,4.6-2.665a2.5,2.5,0,0,0-.212-.394c-1.09.3-2.18.636-3.271.848-1.151.242-2.271.091-2.6-1.242s.515-2.09,1.635-2.392c1.7-.454,3.422-.757,5.118-1.12a1.682,1.682,0,0,1,2.15,1.393c.848,2.938,2.423,5.178,5.481,6.238a4.431,4.431,0,0,1,1.787,1.726,4.749,4.749,0,0,0,3.725,1.878c2.15.151,4.331.363,6.45.7,1.211.182,1.817-.151,2.029-1.363.212-1.181.515-2.332.878-3.937,2.271.848,4.391,1.605,6.45,2.483.363.151.545.908.606,1.423a2.831,2.831,0,0,1-.3,1.393,4.145,4.145,0,0,0,1.393,5.421c-.212-2.3-.394-4.421-.575-6.3,1.544-.757,2.907-1.363,4.179-2.059a3.254,3.254,0,0,0,1-1.03c1.121-1.7-.242-8.54-2.059-9.449-2.938-1.484-4-3.755-3.695-6.935.121-1.09-.394-2.241-.485-3.361a5.665,5.665,0,0,1,.182-2.786c1.181-2.12,2.635-4.119,4-6.148.848-1.242,1.756-1.272,2.786-.182,1.908,1.968,3.452,3.967,3.846,6.935.363,2.574,1.635,5,2.362,7.086a12.665,12.665,0,0,0-1.211,3c-.273,1.968.121,2.18,2.12,2.362a39.816,39.816,0,0,1,4.512.969c-3.21,1.847-3.18,1.817-1.968,4.936a18.114,18.114,0,0,0,1.121,2.877c.333-1.3.575-2.635,1-3.907.727-2.241,1.7-2.453,3.271-.787,2.09,2.211,3.513,4.573,2.12,7.813-.545,1.272,1.3,5.33,2.544,5.845a1.4,1.4,0,0,0,1.3-.424,13.825,13.825,0,0,0,1.03-2.483c1.06-3.059,2.15-6.117,3.15-9.206a4.549,4.549,0,0,0,0-2.211c-.273-1.211-.878-2.392-1.03-3.634-.273-2.029.575-2.816,2.635-2.544a11.189,11.189,0,0,1,3.119.909c1.363.636,2.574,1.605,3.937,2.18,2.877,1.211,2.847,3.937,3.392,6.329.061.333-.394.909-.757,1.211C396.85,397.2,396.123,397.656,395.245,398.262Z" transform="translate(-199.468 -257.054)"/>
    <path id="Path_69" data-name="Path 69" class="cls-1" d="M595.86,840.706a8.441,8.441,0,0,1-1.09,2.423c-2.756,3.119-5.542,6.238-8.54,9.115-.939.909-2.6,1.06-3.937,1.544a57,57,0,0,0-7.208,2.726c-2.332,1.242-2.18,2.423.091,3.785a7.455,7.455,0,0,1,1.181,1.06c-1.938,1.787-5.481.666-6.36,4.058a.73.73,0,0,1-.454.03c-3-.484-5.36.666-7.48,2.726-1.423,1.393-3.028,2.6-5.391,2.514.3-.363.454-.848.757-.939,2.15-.666,2.3-2.514,2.665-4.27a5.951,5.951,0,0,1,.727-2.211c1.544-2.211,1.756-4.694,1.817-7.238a19.429,19.429,0,0,1,.515-2.847l.908-4.633a33.254,33.254,0,0,0,3.483,1.968c.606.273,1.847.363,2.059.061a2.863,2.863,0,0,0,.363-2.392c-1.938-3.937-5-6.42-9.539-6.693-2.574-.151-5.179-.485-7.753-.606a7.916,7.916,0,0,1-7-6.238,5.959,5.959,0,0,0-2.847-4.421,18.472,18.472,0,0,1-2.816-1.635,7.8,7.8,0,0,1-2.271-2.816,2.7,2.7,0,0,0-2.726-2.09c-2.029-.091-4.24-1.12-6.026-.575-1.635.484-2.786,2.514-4.119,3.876a6.252,6.252,0,0,1-5.633,1.756c-3.907-.484-7.753-1-11.205-3.149-.908-.575-2.18-.545-3.3-.787a32.584,32.584,0,0,1-4.179-1.09,4.156,4.156,0,0,1-1.544-1.605c-.3-.424-.242-1.151-.606-1.484-1.847-1.726-1.484-3.907-1.363-6.057.363-5.784.606-11.568,1.151-17.322a8.272,8.272,0,0,1,1.847-4.391c7.995-9.055,16.111-17.958,24.2-26.922a8.723,8.723,0,0,1,.7-.636,22.141,22.141,0,0,0,2.483,1.968c3.059,1.878,6.178,3.664,9.267,5.481.273.151.606.182.818.394,2.544,2.756,5.936,2.453,9.206,2.7,1.454.091,2.877.242,4.331.424,1.272.151,1.938.727,1.787,2.15a29.149,29.149,0,0,0,1.7,12.083c.636,2,2.12,3.725,3.362,5.481a47.116,47.116,0,0,0,4.573,5.815c.848.878,2.332,1.12,3.786,1.756.7,5.905,1.423,12.2,2.241,18.473.394,3,.909,5.966,1.393,8.934.545,3.513,2.786,5.481,6,6.541,1.878.606,3.846,1.03,5.693,1.787a38.405,38.405,0,0,1,4,2.362,3.107,3.107,0,0,0,1.756.575c1.666-.242,3.3-.666,4.936-1.06,1.03-.242,2.059-.606,3.089-.909A2.41,2.41,0,0,0,595.86,840.706Z" transform="translate(-346.451 -533.544)"/>
    <path id="Path_70" data-name="Path 70" class="cls-1" d="M68.553,634.466c-5.512-1.938-10.387-3.543-15.172-5.3-6.9-2.544-13.779-5.118-20.623-7.813-.909-.363-1.575-1.423-2.3-2.211a7.042,7.042,0,0,1-.727-1.242c-2.726-4.815-5.421-9.63-8.207-14.415-.515-.848-1.454-1.454-2.029-2.271a4.5,4.5,0,0,1-1.09-2.423c.121-2.514.636-4.967.757-7.48a10.856,10.856,0,0,0-.7-4.028c-.666-1.878-1.514-3.664-.757-5.754a4.532,4.532,0,0,0-.091-1.787c-.182-1.847-.333-3.725-.575-5.572a4.552,4.552,0,0,1,2.423-4.815,13.363,13.363,0,0,0,5.451-7.45,4.875,4.875,0,0,0-.242-3.755c-2.544-4.209-2.726-8.722-2.544-13.416a48.428,48.428,0,0,0-1.454-14.9c-.151-.515-.242-1.06-.424-1.575-1.242-4.088-2.241-4.512-6.087-2.6-1.211.606-2.453,1.12-3.816,1.756-.3-3-.545-5.663-.848-8.813,2.665,1.514,5.027,2.847,7.359,4.179,10.387,6,20.654,12.235,31.223,17.867,6.693,3.573,13.809,6.3,20.775,9.3,1.272.545,1.575,1,1.12,2.392q-6.859,19.533-13.6,39.1c-.3.909-.575,1.847-.848,2.756a4.716,4.716,0,0,0,.727,4.088,36.383,36.383,0,0,1,2.847,5.239c2.816,6.057,5.633,12.144,8.3,18.291a15.508,15.508,0,0,1,1.06,5C68.674,629.2,68.553,631.589,68.553,634.466Z" transform="translate(-6.631 -361.554)"/>
    <path id="Path_71" data-name="Path 71" class="cls-1" d="M655.724,369.981c.333.666.939,1.847,1.514,3.028a2.523,2.523,0,0,1-3.059.848,10.563,10.563,0,0,1-5-3.089,28.713,28.713,0,0,0-4.27-3.573c-1.3-1-2.574-.848-3.755.454.7,1.09,1.817,2.211.424,3.6a1.625,1.625,0,0,0,.575.939c2.665,1.605,4.482,4.452,7.813,5.088.394.061.757.575,1.06.908,1.09,1.211,1.938,2.7,3.24,3.664,3.937,2.907,3.361,6.753,2.513,11.144-4.542-1.756-9.025-3.452-13.537-5.179-.121.212-.273.424-.394.636a12.782,12.782,0,0,0,2.12,1.938c2.725,1.7,5.451,3.331,8.267,4.845,1.787.969,2.241,2.332,1.726,4.482-4.331-.606-8.9.7-12.9-2.211a6.029,6.029,0,0,0-1.726-.485c-1.938-.636-3.937-1.151-5.784-1.968-1.09-.484-2.332-1.211-1.605-2.937.091-.242-.333-.848-.636-1.06-1.908-1.393-3.816-2.756-5.784-4.028a3.9,3.9,0,0,0-4.27-.3c-1.635.878-3.331,1.575-4.967,2.423-3.15,1.605-7.208-.545-7-3.937a9.175,9.175,0,0,1,1.787-4.361c.394-.575,1.756-.606,2.7-.636a18.943,18.943,0,0,0,7.48-1.878c1.514-.666,1.363-1.363.757-2.453a.665.665,0,0,0-.091-.151c-2.665-1.908-1.666-4.088-.424-6.269.333-.575.515-1.242.878-1.787,1.756-2.665,1.3-5.239-.515-7.541-2.241-2.847-4.664-5.512-7.086-8.207-.212-.242-1.03-.182-1.454-.03-1.06.394-2.059.939-3.059,1.423-.151-.091-.3-.212-.454-.3.485-1.06.969-2.09,1.575-3.362a12.833,12.833,0,0,0-1.756-.182,7.584,7.584,0,0,0-1.575.333c-.242-1.211-.151-2.514-.757-3.21a27.724,27.724,0,0,0-4.028-3.331c-.242,1.03-.363,1.575-.515,2.241-.394.03-.727.061-1.09.091-5.905.151-11.78.3-17.686.394-1.575.03-3.3.151-4.209-1.726-.182-.363-1.211-.515-1.787-.454-2.877.333-4.452-1.423-5.815-3.543-.787-1.242-.485-1.847,1-2.09.818-.121,1.635-.151,2.453-.242.061-.182.091-.333.151-.515a14.33,14.33,0,0,0-2.665-.848,2.47,2.47,0,0,1-2.362-2.483,29.71,29.71,0,0,1,4.3-18.685,5.461,5.461,0,0,1,6.208-2.3c1.878.515,2.15,1.272,1.211,3-1.817,3.392-3.21,6.9-2.3,10.9a7.463,7.463,0,0,0,.212.878c.061.212.212.424.424.909,1.211-1.06,2.059-2.15,1.393-3.725a4.685,4.685,0,0,1,.787-5.36c.575-.666.787-1.666,1.363-2.332a12.827,12.827,0,0,1,3.15-3.119c2.544-1.423,4.119-.909,5.451,1.7,1,1.968,1.635,4.119,2.574,6.117a3.369,3.369,0,0,0,1.817,1.726,2.564,2.564,0,0,0,2.18-.7c2.907-3.6,6.662-3.755,9.691-.242,1.423,1.635,2.7,3.362,4.119,5a19.9,19.9,0,0,0,1.847,1.666c1.908-2.7,3.18-2.7,5.3-.212.636.727,1.272,1.454,1.878,2.18.939,1.151,1.847,2.059,3.664,1.423,1.514-.515,3.028,1,3.089,2.635v1.484c2.6-1.332,3.271-1.181,4.755,1.363.575.969.787,2.15,1.423,3.089a17.476,17.476,0,0,0,2.362,2.423,7.023,7.023,0,0,1-1.847.939c-1.454.212-1.666,1.12-1.817,2.392-.242,1.847.3,2.968,2.15,3.483,2.544.7,5.057,1.423,7.571,2.211a24.336,24.336,0,0,1,3.422,1.484c1.06.515,2.12,1.06,3.18,1.605.273.121.7.151.787.363.878,1.847,2.271,1.211,3.695.909,2.09-.454,3.149.424,3,2.574a45.864,45.864,0,0,1-.848,6.723C657.419,367.679,656.541,368.588,655.724,369.981Z" transform="translate(-398.501 -218.144)"/>
    <path id="Path_72" data-name="Path 72" class="cls-1" d="M195.6,714.614c-1.242-.333-2.332-.606-3.422-.878-3.846-1.06-7.692-2.029-11.478-3.18-2.665-.787-3.967-2.635-3.24-5.209,1.06-3.786.03-7.026-1.544-10.387-2.938-6.208-5.6-12.537-8.419-18.776a9.131,9.131,0,0,0-1.878-2.847,3.1,3.1,0,0,1-.787-3.574c3.028-8.964,6.026-17.928,9.115-26.862,1.847-5.33,3.876-10.63,5.905-16.2,11.387,3.452,22.652,6.9,33.948,10.327-.3,2.12-.757,3.907-2.7,5.148a16.115,16.115,0,0,0-2.786,2.938c.061.242.151.454.212.7,1.03.061,2.059.151,3.362.242Q203.806,679.984,195.6,714.614Z" transform="translate(-114.749 -436.917)"/>
    <path id="Path_73" data-name="Path 73" class="cls-1" d="M311.641,691.969c.454-.151,1-.333,1.847-.636,0,1.09.061,2,0,2.938q-1.317,19.669-2.726,39.369c-.242,3.543-.545,7.086-.818,10.66-.182,2.332-.242,2.514-2.635,2.15q-10.63-1.59-21.229-3.483c-4.149-.757-8.237-1.787-12.356-2.726-.878-.182-1.726-.485-2.726-.787,1.03-4.452,2.029-8.813,3.059-13.113,4.452-18.443,8.934-36.916,13.325-55.389.454-1.878,1.242-2.423,3.059-2.241,3.452.333,6.935.484,10.993.757-4.058-2.7-8.207-3.937-12.537-5.057.151-.727.3-1.363.485-2.211,1.847.3,3.634.545,5.391.848,6.874,1.3,13.719,2.635,20.623,3.907,1.393.242,1.938.787,1.7,2.271-.515,3.089-1.03,6.208-1.272,9.327a6.685,6.685,0,0,1-2.514,5.148,3.522,3.522,0,0,0-1.211,3.331A40.971,40.971,0,0,1,311.641,691.969Z" transform="translate(-188.939 -461.667)"/>
    <path id="Path_74" data-name="Path 74" class="cls-1" d="M411.347,679.3c8.631.939,17.171,1.847,25.923,2.786,0,1.787.03,3.513,0,5.239-.03,1.7.7,2.847,2.362,3.119,2.847.454,4.028,2.211,4.391,4.876.363,2.635.878,5.209,1.363,8.207,4.24-.757,8.6-.908,12.78,1.575-.485.666-1,1.423-1.605,2.12-6.784,7.753-13.507,15.6-20.472,23.228a16.2,16.2,0,0,0-4.421,10.932c-.212,6.087-.7,12.174-1.06,18.261-.03.454-.151.939-.242,1.666-3.967-.3-7.874-.575-11.75-.939-4.27-.394-8.51-.939-12.78-1.242-1.393-.091-1.756-.575-1.666-1.878.424-6.693.787-13.385,1.242-20.048.636-9.327,1.333-18.655,2.029-27.982.212-3,.515-6.026.787-9.025a3.41,3.41,0,0,1,.091-.545c2.211-6.148,1.484-12.719,2.786-18.988A10.073,10.073,0,0,1,411.347,679.3Zm13.416,64.232c-.333,1.3-.606,2.332-.848,3.361-.212.939-.485,1.878-.606,2.816-.151,1.332.515,1.6,1.635,1.03,1.968-.969,2.453-1.908,1.908-4.452-.818-3.755-1.666-7.541-2.726-11.235a40.965,40.965,0,0,0-2.756-7.238c-1.272-2.514-3.6-2.544-5.33-.3-.545.7-.969,1.484-1.484,2.271a20.091,20.091,0,0,0-2.3-2.453,2.192,2.192,0,0,0-1.787-.3c-.333.121-.454.939-.636,1.484-.212.575-.182,1.393-.606,1.726-1,.848-.787,1.7.03,2.271,2,1.423,1.968,3.271,1.423,5.33a3.135,3.135,0,0,0,1.544,3.967,6.33,6.33,0,0,1,2.968,4.543,48.049,48.049,0,0,0,1.272,5.088,1.2,1.2,0,0,0,1,.7c.3-.03.818-.636.757-.939-.394-3.392-.273-7.117-2.786-9.691a6.455,6.455,0,0,1-2-6.117,7.655,7.655,0,0,1,.091-1.454c.242-.7.636-1.363.939-2.029.787.545,1.817.909,2.271,1.666.939,1.454,1.484,3.149,2.332,4.694a2.517,2.517,0,0,0,1.544,1.272c2.12.121,2.483,1.3,2.271,3.059a10.588,10.588,0,0,0,0,1.393C423.491,743.8,423.945,743.714,424.763,743.532Z" transform="translate(-281.77 -473.588)"/>
    <path id="Path_75" data-name="Path 75" class="cls-1" d="M39.386,296.4c.757,1.181,1.423,2.029,1.878,2.938a64.411,64.411,0,0,1,3.18,7.268,5.04,5.04,0,0,1-.606,3.15c-1.605,3.573-3.3,7.086-5,10.6a1.953,1.953,0,0,0,.7,2.726c3.664,2.968,3.664,3,2.18,7.541a4.172,4.172,0,0,0,.545,4.361c1.3,1.605.969,2.635-.7,3.876a4.588,4.588,0,0,0-1.635,5.209c2.15,6.723,1.968,13.385.636,20.2a7.248,7.248,0,0,0,.727,4.179,17.745,17.745,0,0,1,1.878,10.175,2.036,2.036,0,0,0,1.575,2.544,25.741,25.741,0,0,1,2.786,1.3c3.089,1.514,3.573,2.6,2.483,6.329-.545-.242-1.09-.424-1.605-.7A359.3,359.3,0,0,1,6.165,363.418c-2.938-1.968-2.877-2.029-.909-5.027A3.5,3.5,0,0,0,5.5,357.6c-1.242-.575-2.544-1.151-3.816-1.787-1.938-1-2.09-1.332-.909-3.119q17.489-25.983,35.038-51.906A53.394,53.394,0,0,1,39.386,296.4Z" transform="translate(-0.025 -206.645)"/>
    <path id="Path_76" data-name="Path 76" class="cls-1" d="M566,20.667c-1.06-.485-1.968-.969-2.907-1.3-1.242-.454-1.332-1.332-.515-2.029,1.544-1.3,3.149-2.938,5-3.452,1.635-.454,1.878-1.575,2.6-2.514,1.7-2.241,1.666-2.271,4.421-1.12a1.342,1.342,0,0,0,.454.091,39.584,39.584,0,0,1,2.483-4.785c.7-1.03,2.029-1.575,2.786-2.574,1.7-2.241,4.209-1.12,6.208-1.787C590.68-.169,594.919.013,599.159.043c.727,0,1.454.636,2.15,1.03.757.454,1.514.939,2.241,1.423a4.623,4.623,0,0,1,1.514,1.181c1.363,2.362-.061,7.359-2.15,9.055a37.411,37.411,0,0,0-3.846,4.3c.182.151.363.333.545.485.878-.909,1.7-1.878,2.635-2.756a1.661,1.661,0,0,1,1.393-.485,1.524,1.524,0,0,1,.606,1.332,23.049,23.049,0,0,1-1.06,3.755c-1.544,4.24-3.18,8.449-4.694,12.689-.3.848-.242,1.817-.545,2.635-.242.636-.757,1.605-1.211,1.635-1.847.151-2.211,1.756-3.24,2.726a15.335,15.335,0,0,1-3.543,2c.212,1.242.394,2.332.606,3.695a6.016,6.016,0,0,1,1.575.575c1.151.757,2,2.029,1.333,3.21a2.254,2.254,0,0,0,.273,3,14.689,14.689,0,0,1-1.575,3,14.357,14.357,0,0,1-2.574,2.029c-.121-.091-.273-.182-.394-.273,0,.636-.06,1.3,0,1.938a4.041,4.041,0,0,1-1.242,3.6c-.848.787-.7,1.514.121,2.271.757.7,2.029,1.666,1.908,2.332a12.806,12.806,0,0,1-1.847,4.361,4.364,4.364,0,0,1-1.817,1.454c-1,.515-2.12,1.332-2.453-.787-.091-.485-1.514-1.3-1.7-1.181-2.059,1.575-3.6.273-5.451-.969-.515,3.573-3.028,2.514-5.179,2.423-1.03-.03-2.059-.091-3.089-.121-3.15-.151-4.452-2.544-2.665-5.209a20.828,20.828,0,0,1,3.422-3.21c-.151-.242-.484-.848-.878-1.393-1.272-1.756-1.3-3.6-.03-4.3a3.5,3.5,0,0,1,4.542,1.756,7.25,7.25,0,0,0,.878,1.575,8.61,8.61,0,0,0,1.7,1.03c-.575-2.483-4.119-3.664-1.454-6.42a19.163,19.163,0,0,1-3.24-.424,2.36,2.36,0,0,1-1.454-1.272c-.545-2.392,2.453-6.6,4.845-6.723a6.915,6.915,0,0,1,2.938,1.181c1.06.545,1.454.242,1.393-.969-2.423-.363-3.543-2.18-4.6-4.119a42.712,42.712,0,0,0-3.028-4.694c-.727-1.03-.878-4.452-.061-5.33.727-.818,2.938-.545,4.119.636a34.66,34.66,0,0,0,3.664,3.634c-.424-.787-.787-1.575-1.242-2.3-1.393-2.15-1.333-2.15.787-3.634,2.029-1.393,3.937-2.968,5.936-4.512-.727-1.09-1.181-1.726-1.756-2.574-.515.848-.969,1.544-1.363,2.271a5.4,5.4,0,0,1-4.755,3.089c-.848.03-1.666.242-2.514.333-2.665.3-3.089-.212-2.544-2.877.061-.273.091-.545.212-1.272a9.214,9.214,0,0,1-1.12,1.514c-.7.545-1.666,1.575-2.15,1.393a9.1,9.1,0,0,1-2.544-2.211c-.212-.212-.151-.7-.363-.848-1.787-1.3-1.878-2.029-.484-3.695A7.251,7.251,0,0,0,566,20.667Z" transform="translate(-391.844 -0.019)"/>
    <path id="Path_77" data-name="Path 77" class="cls-1" d="M887.354,690.8c-.121-.575-.3-1.151-.394-1.756-.273-1.635-.878-2.6-2.786-1.787-1.121.484-1.757-.091-1.635-1.3a4.023,4.023,0,0,0-2.059-3.907,8.515,8.515,0,0,1-1.938-2.09,2.7,2.7,0,0,1-.121-3.513c.333-.485.575-1.06.878-1.575,1.514-2.7,1.635-2.665,4.543-1.908a4.048,4.048,0,0,0,2.514-.3,5.252,5.252,0,0,1,4.543-.091c-1.272,1.484-2.453,2.726-3.483,4.088a4.89,4.89,0,0,0-.515,1.817,7.51,7.51,0,0,0,2.15.151c1.666-.394,3.271-1.03,4.906-1.454,1.393-.363,2.09-1.938,1.726-4a.745.745,0,0,0-.333-.121l-3.271.182a16.451,16.451,0,0,0,.575-2.907,12.168,12.168,0,0,0-.273-3.785,10.43,10.43,0,0,0-1.726-3.362c-2.392-3.059-3.059-6.632-3.331-10.327-.151-1.938-.636-3.634-2.726-4.482a1.869,1.869,0,0,1-1.09-2.514,28.38,28.38,0,0,0,.424-4.361,6.246,6.246,0,0,0-1.423-.091c-1.423.182-2-.485-2.332-1.817a21.616,21.616,0,0,0-1.454-3.059c-.515-1.211-.939-2.483-1.423-3.725a4.566,4.566,0,0,0,.515-.3c.575.484,1.211.909,1.756,1.423,2.877,2.847,5.663,5.754,8.57,8.57.969.939,2.211,1.605,3.18,2.574a6.792,6.792,0,0,1,1.666,2.453,3.859,3.859,0,0,0,2.635,2.726c1.121.3,1.121.939.969,1.908-.484,3.059.242,4.088,3.059,5.269,2.15.909,4.149,2.211,6.329,2.907,2.756.909,5.572,1.666,8.6.848,1.272-.333,2.816.363,4.785.666-1.151,1.332-1.878,2.18-2.635,3-1.817,2-3.695,3.967-5.451,6.027a12.348,12.348,0,0,0-1.272,2.332l.727.545c.878-.939,1.817-1.847,2.665-2.847,1.484-1.726,2.877-3.543,4.391-5.269a1.972,1.972,0,0,1,3.149-.121,4.9,4.9,0,0,0,1.787.7,45.3,45.3,0,0,1,4.391,1.272,2.94,2.94,0,0,1,2.12,3.15c-.03,1.03.909,2.18,1.575,3.15,1.817,2.7,1.878,2.847.061,5.6-.485.757-1.06,1.454-1.605,2.18-.242-.121-.485-.151-.545-.273-1.454-2.816-3.483-2.392-6-1.423-6.45,2.483-13.022,4.755-19.5,7.147-1.756.636-3.452,1-5.239.091-1.151-.575-1.635.061-1.847,1.151-.848,3.937-.848,3.876-4.785,2.968C890.08,690.978,888.808,690.948,887.354,690.8Z" transform="translate(-611.628 -440.961)"/>
    <path id="Path_78" data-name="Path 78" class="cls-1" d="M324.463,329.5c4.3,1.242,8.57,2.453,12.84,3.664,1.726.485,3.513.909,5.239,1.423,1.272.363,1.908.061,2.271-1.363,1.666-6.662,3.452-13.295,5.209-19.957.182-.666.424-1.332.727-2.271,2.029,3.361,1.454,6.965,2.15,10.236.212.03.424.091.636.121a9.326,9.326,0,0,0,.757-2.423c.03-2.241-.151-4.452-.212-6.693-.091-3.634.818-4.3,4.452-3.21-.273-1.363-.7-2.786,1.03-3.392a3.277,3.277,0,0,1,3.725,1.121,2.62,2.62,0,0,1-.03,3.785c-2.453,2.453-2.362,5.33-1.968,8.358.212,1.666.454,3.361.545,5.027a8.564,8.564,0,0,1-.182,3.18,4.7,4.7,0,0,0,1.03,5.027c1.514,1.726,3.089,3.392,4.694,5.027a4.814,4.814,0,0,1,1.393,4.785c-1.363-.182-2.7-.363-4.482-.636.484,1.181.818,2.09,1.181,3,.939,2.3-.182,4.209-2.7,4.209a7.573,7.573,0,0,1-3.755-.909c-2.362-1.393-4.543-3.119-6.874-4.755-5.421,3.6-11.659,3.452-17.989,2.514-.606-.091-1.272-.969-1.605-1.635a6.1,6.1,0,0,1-.3-2.12,4.221,4.221,0,0,0-3.028-4.179C325.613,336.165,324.281,333.682,324.463,329.5Z" transform="translate(-226.199 -212.946)"/>
    <path id="Path_79" data-name="Path 79" class="cls-1" d="M1060.372,818.762c.545-1.211,1.09-2.423,1.635-3.664a6.068,6.068,0,0,0-.485-.424c-1.544.424-3.119.757-4.633,1.3-3.816,1.333-7.571,2.786-11.357,4.149-1.514.545-2.514-.121-2.18-1.635,1.484-6.965.606-14.082,1.3-21.078a24.523,24.523,0,0,1,.636-5,10.042,10.042,0,0,1,2.483-3.785c1.03-1.09,1.908-.757,2.059.787a57.883,57.883,0,0,1,.121,6.481c0,1.09-.182,2.15-.3,3.6.575-.454.909-.727,1.242-.969,1.211-.878,2.453-.636,2.847.757.454,1.605,1.332,1.756,2.725,1.272,1.878-.636,3.755-1.3,5.693-1.756,2.059-.515,2.817.121,2.817,2.18,0,1.363.787,1.575,1.847,1.7,2.483.242,2.635.454,1.393,2.513-.757,1.272-.545,2.362.151,3.937.666-.939,1.181-1.666,1.393-2,1.514.7,2.635,1.211,4.24,1.968a39.409,39.409,0,0,1-.061,4.936c-.151,1.332-1.423,1.756-2.7,1.3a6.019,6.019,0,0,0-2.181.091c-.394-1.605-.848-3.392-1.3-5.178-.212-.03-.424-.061-.605-.091-.969,2.211-2,4.361-2.847,6.6C1063.491,818.883,1062.7,819.368,1060.372,818.762Z" transform="translate(-727.349 -549.363)"/>
    <path id="Path_80" data-name="Path 80" class="cls-1" d="M327.047,324.65c4,.7,7.995,1.423,11.932,2.12-.485-1.332-2.756-3.119-4.936-3.664-1.908-.515-3.876-.878-5.754-1.484a5.417,5.417,0,0,1-2.544-1.575c-1.575-1.878-1.151-3.059,1.181-3.725,1.03-.3,2.059-.606,3.18-.939-.212-.182-.333-.363-.485-.363-3-.182-3.21-2.847-4.27-4.724-.091-.182-.151-.545-.03-.666,1.878-2.362,2.423-5.845,5.754-6.874,2.816-.878,5.663-1.635,8.51-2.362,1.272-.333,1.847.273,1.605,1.544s-.545,2.544-.939,4.482c1.817-1.817,3.119-1.726,4.755-.636,1.605,1.09,2.726,2,1.423,4.058,2.12-.121,2.09-.151,2.15-1.756a10.475,10.475,0,0,1,.424-1.878c.182.03.363.091.575.121-.242,1.151-.454,2.3-.727,3.422-1.544,6.329-3.089,12.628-4.724,18.927-.121.515-.939,1.333-1.211,1.242-5.33-1.423-10.63-2.968-15.96-4.482C326.987,325.134,327.017,324.892,327.047,324.65Z" transform="translate(-226.452 -209.365)"/>
    <path id="Path_81" data-name="Path 81" class="cls-1" d="M275.4,262.28c2.635-3.543,5.421-7.056,7.9-10.72a17,17,0,0,0,2.271-5.391c.363-1.605.939-1.938,2.453-1.666,3.119.575,5.814,1.575,7.813,4.331.787,1.121,2.574,1.514,3.907,2.241.061.03.121,0,.182,0,3.392,1.181,2.907,4.482,3.725,7.026.575,1.878-1.09,2.423-2.514,2.877a26.035,26.035,0,0,0-13.628,9.63,6.021,6.021,0,0,1-3.362,1.756c-1.484.363-3.422.909-4.543.273-.939-.515-.939-2.635-1.454-4C277.278,266.519,276.278,264.369,275.4,262.28Z" transform="translate(-192.006 -170.404)"/>
    <path id="Path_82" data-name="Path 82" class="cls-1" d="M552.736,238.341c-4.028,2.271-11.054,2.453-13.234.242a3.123,3.123,0,0,0-.848.545c-.878,1.03-1.787.757-3.028.515-2.816-.575-3.876-2.211-3.876-4.845a37.043,37.043,0,0,1-.091-5.179,6.277,6.277,0,0,0-1.423-5.027,2.209,2.209,0,0,0-1.666-.757c-2.877.061-4.573-1.666-5.754-3.907a3.364,3.364,0,0,1-.091-2.544c.212-.454,1.272-.787,1.938-.787a5.168,5.168,0,0,1,4.936,2.392c.333.545,1.393.787,2.15.878,1.666.151,3.089-.03,3.967,2.18.515,1.333,1.484,2.332,1.09,4-.212.878,2,3.3,2.877,3.573,3.876,1.211,7.419,1.06,10.872-1.575,2.6-2.029,9.358.182,10.509,3.392a6.643,6.643,0,0,1-.969,6.481c-1.393,1.635-3.634,1.726-5.724,1.393A9.936,9.936,0,0,1,552.736,238.341Z" transform="translate(-364.288 -151.008)"/>
    <path id="Path_83" data-name="Path 83" class="cls-1" d="M536.13,80.965c-1.756-2.453-1.756-2.453.394-4.755a6.272,6.272,0,0,0,.515-.727c.394-.515.787-1.484,1.151-1.484a7.462,7.462,0,0,1,2.453.878.921.921,0,0,1,.363.394c1.726,3.15,3.422,6.3,5.148,9.449.3.515.606,1.03.939,1.514.273.394.757.7.878,1.151a14.968,14.968,0,0,0,4.179,6.3c.454.454.212,1.847-.091,2.665a12.548,12.548,0,0,1-1.756,2.514c-1,1.393-2,2.847-3.028,4.209-.666.878-1.03,2.15-2.574,1.847-.242-.03-.636.273-.787.515-.969,1.363-2.6,1.635-3.695.3a37.3,37.3,0,0,1-4-5.966c-.878-1.635-.273-2.6,1.484-3.361a18.8,18.8,0,0,0,1.847-1.03v-.666a10.393,10.393,0,0,0-2.847-.485c-2.7.212-2.786.212-3.119-2.423a1.629,1.629,0,0,0-.3-.606c-1.635-2.392-1.211-3.755,1.454-4.633-.484-1.09-1.484-2.332-1.272-3.271S535.131,81.753,536.13,80.965Z" transform="translate(-371.121 -51.596)"/>
    <path id="Path_84" data-name="Path 84" class="cls-1" d="M927.377,921.3c-.575,4.936.636,9.115,6.572,10.387-2.847,4.27-5.724,8.3-10.175,10.842a2.862,2.862,0,0,1-3.664-.424c-2.332-2.3-4.149-4.906-4.512-8.237-.273-2.544-1.454-4.088-4-4.694-.485-.121-1-1.121-1-1.7a2.345,2.345,0,0,1,1-1.787c2.18-.939,4.452-1.7,6.693-2.514a.43.43,0,0,1,.182-.061Q922.88,922.208,927.377,921.3Z" transform="translate(-634.844 -642.301)"/>
    <path id="Path_85" data-name="Path 85" class="cls-1" d="M624.958,551.376c-2.423-.515-4.633-.273-5.966-2.665-.939-1.7-2.09-1.181-3.059.515a25.948,25.948,0,0,1-3.907,5.33c-1.393,1.454-2.332.939-2.938-.939a3.337,3.337,0,0,0-1.635-1.514,6.747,6.747,0,0,0-1.968-.242c-.939-.121-1.363-.7-.787-1.514,2-2.786,1.332-6.026,1.787-9.085.3-2.09.576-4.179,1.06-6.208.363-1.514,1.847-1.878,2.6-.545,1.332,2.362,3.664,3.24,5.693,4.573,2.726,1.787,5.542,3.422,6.784,6.753.212.545,1.514.606,2.271,1a6.351,6.351,0,0,1,2.362,1.635c.273.363-.151,1.544-.575,2.059A5.636,5.636,0,0,1,624.958,551.376Z" transform="translate(-421.398 -372.072)"/>
    <path id="Path_86" data-name="Path 86" class="cls-1" d="M478.991,317.765a12.485,12.485,0,0,1,2.907,9.085,2.748,2.748,0,0,1-.818,1.575,54.061,54.061,0,0,1-4.452,3.846c-1.332,1-3.755-.182-4.058-2.18a8.249,8.249,0,0,0-3.362-5.3c-2-1.666-2.544-3.634-1.817-5.239.7-1.575,1.272-1.726,2.726-.757.545.363,1.09.666,1.666,1.06,1.181-1.363,1.575-2.514.515-4.119a5.429,5.429,0,0,1-.666-3.513c.333-2.15,1.121-2.423,3.119-1.454a2.563,2.563,0,0,0,2.847-.03,3.144,3.144,0,0,1,1.211-.363c2.059-.485,2.786.273,2.392,2.392C480.869,314.646,480.6,316.584,478.991,317.765Z" transform="translate(-325.642 -216.29)"/>
    <path id="Path_87" data-name="Path 87" class="cls-1" d="M973.247,959.037c-1.03.394-2.09.787-3.15,1.181.091-2.211,2.12-5.027,4.058-5.421,2.574-.545,5.178-1.03,7.813-1.393,1.544-.212,3.513-.363,4.149,1.272.273.757-.908,2.332-1.787,3.18-2.362,2.392-4.694,4.966-7.48,6.753-1.7,1.09-2.18,2.483-3.028,3.937a29.873,29.873,0,0,1-3.361,4.664c-1.272,1.393-3.089,1.09-4.149-.485-1.272-1.908-1.756-3.937-.151-5.845,1.817-2.15,3.785-4.179,5.724-6.208.454-.454,1.03-.787,1.544-1.211C973.368,959.31,973.308,959.189,973.247,959.037Z" transform="translate(-672.87 -664.594)"/>
    <path id="Path_88" data-name="Path 88" class="cls-1" d="M380.847,222.914a47.816,47.816,0,0,0-5.088-.333c-1.605.03-5.088-3-4.967-4.6,0-.121,0-.273.061-.333,1.7-2.3,3.361-4.664,5.118-6.9a3.545,3.545,0,0,1,1.726-.939c1.7-.575,2.847,0,3.573,1.666a2.792,2.792,0,0,0,.515.939,9.3,9.3,0,0,1,2.816,5.875c.121.636.969,1.151,1.484,1.726.333.394.908.787.939,1.211.151,4.058-2.029,7.086-5.875,7.934a5.149,5.149,0,0,1-3.21-.515,3.546,3.546,0,0,1-1.666-2.332c-.061-.424,1.272-1.151,2.059-1.575a24.816,24.816,0,0,1,2.6-1.09A3.177,3.177,0,0,1,380.847,222.914Z" transform="translate(-258.508 -146.12)"/>
    <path id="Path_89" data-name="Path 89" class="cls-1" d="M521.5,315.028c.606-2.453,1.242-5.542,2.18-8.57.7-2.241,2.938-2.15,4.573-1.878a33.561,33.561,0,0,1,6.42,2.211c.908.363.939,1,.515,1.908-1.3,2.7-2.423,5.481-3.816,8.146a2.9,2.9,0,0,1-2.15,1.06c-1.7.091-2.483.727-2.514,2.483a3.509,3.509,0,0,1-.787,2.271,2.11,2.11,0,0,1-3.543-1.3C522.045,319.48,521.863,317.632,521.5,315.028Z" transform="translate(-363.578 -212.25)"/>
    <path id="Path_90" data-name="Path 90" class="cls-1" d="M37.84,810.257a3.464,3.464,0,0,1-3.846-.878,13.848,13.848,0,0,1-2.18-2.423A79.335,79.335,0,0,1,22.4,787.968a2.545,2.545,0,0,1,.273-2.211c.878-.878,1.787-.182,2.453.575,2.332,2.6,4.633,5.239,6.965,7.844a2.025,2.025,0,0,1,.485.757q2.589,7.177,5.179,14.385A3.093,3.093,0,0,1,37.84,810.257Z" transform="translate(-15.529 -547.521)"/>
    <path id="Path_91" data-name="Path 91" class="cls-1" d="M477.379,235.477a32.925,32.925,0,0,1-3.483-.03,2.287,2.287,0,0,1-1.635-.787c-.485-.848-.454-2-1.03-2.786a10.342,10.342,0,0,0-2.332-1.908,2.357,2.357,0,0,1,4.209-.575,18.371,18.371,0,0,0,2.029,2.271c.424.333,1.151.242,1.756.363a5.322,5.322,0,0,0-.151-2.12,8.111,8.111,0,0,0-1.817-1.7c1.181-2.453,5.905-3.392,7.783-1.544a1.893,1.893,0,0,1,.363,1.3c-.182,3.785-.363,7.571-.7,11.356a1.945,1.945,0,0,1-1.363,1.242,5.944,5.944,0,0,1-2.574-.606C476.108,238.778,475.835,237.718,477.379,235.477Z" transform="translate(-326.907 -157.35)"/>
    <path id="Path_92" data-name="Path 92" class="cls-1" d="M346.067,188.674c-1.181-.545-2.3-1.211-3.513-1.635-1.635-.606-1.938-1.787-.666-3a5.876,5.876,0,0,1,.878-.636c3.059-1.878,6-4.058,9.237-5.512,1.7-.757,3.967-.424,5.966-.3.363.03,1.121,1.666.878,2.12a52.29,52.29,0,0,1-3.907,6.329c-.363.515-1.363.606-2.09.909-.061-.787-.151-1.575-.151-2.332,0-.212.151-.394.424-1.09-2.514,2.211-4.664,4.088-6.784,5.966A6.434,6.434,0,0,1,346.067,188.674Z" transform="translate(-237.81 -123.691)"/>
    <path id="Path_93" data-name="Path 93" class="cls-1" d="M424.8,227.886c1.121-5.088,2.18-10.054,3.362-15.021.151-.636.878-1.12,1.332-1.666a6.373,6.373,0,0,1,.939,2.09c.121,2.029.03,4.088.03,6.36.727-.03,1.544-.061,2.332-.121a1.745,1.745,0,0,1,2.09,1.514,6.151,6.151,0,0,1-1.393,6.057c-1.514,1.635-3.422,1.756-5.481,1.151A14.632,14.632,0,0,0,424.8,227.886Z" transform="translate(-296.162 -147.246)"/>
    <path id="Path_94" data-name="Path 94" class="cls-1" d="M476.539,144.852c.151-.212.394-.848.848-1.06,1.726-.878,1.423-2,.545-3.24a6.385,6.385,0,0,0-.575-.7c-.848-1-1.454-2.12-.273-3.15a2.361,2.361,0,0,1,3.422.3c1.878,1.938,3.6,4.058,5.39,6.117.182.212.485.485.485.757.151,2.241-.121,4.543,1.272,6.6.121.182-.7,1.181-1.242,1.575-.212.151-.939-.3-1.3-.606a21.7,21.7,0,0,1-2.029-2.059,4.814,4.814,0,0,0-3.846-1.635A2.6,2.6,0,0,1,476.539,144.852Z" transform="translate(-332.154 -94.89)"/>
    <path id="Path_95" data-name="Path 95" class="cls-1" d="M488.975,427.4a13.943,13.943,0,0,1,5.693,8.389,2.378,2.378,0,0,1-3.3,2.786,39.338,39.338,0,0,1-6.511-4.028,1.276,1.276,0,0,1-.061-1.242C486.1,431.337,487.522,429.429,488.975,427.4Z" transform="translate(-337.897 -297.973)"/>
    <path id="Path_96" data-name="Path 96" class="cls-1" d="M645.8,313.419c5.542-1,8.57.182,10.872,3.907.909,1.454.7,1.787-.969,2.029a32.045,32.045,0,0,0-4.179.909c-1.272.363-2.241.212-2.847-1.06C647.768,317.356,646.83,315.509,645.8,313.419Z" transform="translate(-450.235 -218.273)"/>
    <path id="Path_97" data-name="Path 97" class="cls-1" d="M529.067,265.664c-.454.969-.666,2.423-1.393,2.786-.878.394-2.18-.182-3.3-.363a1.808,1.808,0,0,1-.454-.273c-3.392-2.241-3.543-3.028-1.393-6.45a2.877,2.877,0,0,1,3.331-1.484c1.544.363,2.6,1.181,2.635,2.938.03.909.151,1.787.242,2.7A2.956,2.956,0,0,1,529.067,265.664Z" transform="translate(-363.301 -181.117)"/>
    <path id="Path_98" data-name="Path 98" class="cls-1" d="M705.243,461.089c-.182,1.756.121,3.695-1.968,4.664-1.878.848-3.362.394-3.664-1.635a16.653,16.653,0,0,1,.242-5.33,2.407,2.407,0,0,1,2.786-2.029,2.771,2.771,0,0,1,2.483,2.665A15.95,15.95,0,0,1,705.243,461.089Z" transform="translate(-487.662 -318.428)"/>
    <path id="Path_99" data-name="Path 99" class="cls-1" d="M420.5,166.1c-.485,1.878-.818,3.634-1.423,5.33-.545,1.575-3.21,2.029-4.361.575a41.417,41.417,0,0,1-3.452-5.814c-.151-.242.03-.666.091-1.393C414.111,167.465,417.23,165.739,420.5,166.1Z" transform="translate(-286.685 -114.898)"/>
    <path id="Path_100" data-name="Path 100" class="cls-1" d="M523,165.694c.636,2.09-.787,2.938-2.15,3.483a2.5,2.5,0,0,1-2.3-.636,20.048,20.048,0,0,1-1.938-5.784c-.273-2.423.909-2.938,3.089-1.756C521.638,162.06,523.7,163,523,165.694Z" transform="translate(-360.142 -111.825)"/>
    <path id="Path_101" data-name="Path 101" class="cls-1" d="M1030.609,929.284a12.7,12.7,0,0,0-1.09-.969c-1.7-1.393-2.211-3-1.09-5.057.818-1.514,1.393-3.149,2.211-5.057.394.757.727,1.09.757,1.454a5.014,5.014,0,0,0,2.514,3.907c1.09.666.7,2.514-.636,3.695-.394.363-.908.606-1.332.939A11.8,11.8,0,0,0,1030.609,929.284Z" transform="translate(-716.574 -640.14)"/>
    <path id="Path_102" data-name="Path 102" class="cls-1" d="M962.6,867.3c2.271.575,4.543,1.151,6.784,1.817.424.121.7.7,1.03,1.09-.424.242-.818.666-1.272.727-3.362.575-6.723.878-9.872-.939a8.65,8.65,0,0,1-1.272-1.09c.485-.394.939-.969,1.484-1.09a20.111,20.111,0,0,1,3.028-.3A1.471,1.471,0,0,1,962.6,867.3Z" transform="translate(-667.889 -604.655)"/>
    <path id="Path_103" data-name="Path 103" class="cls-1" d="M978.419,939c2.816,3.392,6.087.424,9.176.515.121,3.089-.3,3.513-3.271,3.15-1.787-.212-3.573-.484-5.36-.848C977.026,941.423,976.905,940.756,978.419,939Z" transform="translate(-681.404 -654.641)"/>
    <path id="Path_104" data-name="Path 104" class="cls-1" d="M530.689,195.814c-.909-.818-2.09-1.484-2.635-2.514-.454-.878,1.635-2.332,3.089-2.3,1.545.061,2.877,1.12,2.756,2.241C533.838,194.391,532.385,195.481,530.689,195.814Z" transform="translate(-368.103 -133.163)"/>
    <path id="Path_105" data-name="Path 105" class="cls-1" d="M427.4,153.628c.757-1.635,2.18-2.12,5.36-1.726-.273,1.181-.515,2.362-.848,3.725C430.277,154.9,428.823,154.264,427.4,153.628Z" transform="translate(-297.975 -105.816)"/>
    <path id="Path_106" data-name="Path 106" class="cls-1" d="M365.52,215.5c.454.273.909.394,1.09.666a1.028,1.028,0,0,1-.242.939,13.549,13.549,0,0,1-2.392,2.18c-.454.3-1.211.091-1.847.121.061-.757-.212-1.847.212-2.211A14.43,14.43,0,0,1,365.52,215.5Z" transform="translate(-252.448 -150.244)"/>
    <path id="Path_107" data-name="Path 107" class="cls-1" d="M511.488,112.2a17.724,17.724,0,0,1,1.545,2.756c.091.242-.757.848-1.181,1.272a14.143,14.143,0,0,1-2-2.3c-.151-.3.575-1.09.878-1.635C510.973,112.261,511.216,112.23,511.488,112.2Z" transform="translate(-355.443 -78.227)"/>
    <path id="Path_108" data-name="Path 108" class="cls-1" d="M465.875,192.8c1.7,1.363,1.878,2.544.7,4.209C464.724,195.859,464.512,194.617,465.875,192.8Z" transform="translate(-324.185 -134.419)"/>
    <path id="Path_109" data-name="Path 109" class="cls-1" d="M463.545,263.1a24.46,24.46,0,0,1-2.574-.606c-.091-.03-.091-1.03.151-1.211.454-.363,1.363-.818,1.605-.606a6.2,6.2,0,0,1,1.181,1.878Z" transform="translate(-321.34 -181.701)"/>
    <path id="Path_110" data-name="Path 110" class="cls-1" d="M675.178,428.3c.484,3.059-.091,4.361-1.878,4.967C673.966,431.571,674.572,429.935,675.178,428.3Z" transform="translate(-469.407 -298.6)"/>
    <path id="Path_111" data-name="Path 111" class="cls-1" d="M723.2,462.2c.787.363,1.575.727,2.362,1.121-.182.333-.3.878-.545.939-1.242.3-1.847-.363-2.12-1.423C723.021,462.594,723.112,462.412,723.2,462.2Z" transform="translate(-503.986 -322.234)"/>
  </g>
</svg>
